{
  "globalDevDependencies": {
    "sinon": "registry:dt/sinon#1.16.1+20161208163514",
    "chai": "registry:dt/chai#3.4.0+20160601211834",
    "mocha": "registry:dt/mocha#2.2.5+20161028141524"
  }
}
